number,age,gender,study,trial,resp_key,resp_rt,sub_choosen,lft_col,rgt_col,lft_sub,rgt_sub,sea_scene,points_s1s3,points_s2s4,optimal,collected_points,total_points,condition,block,volgorde
1,18,V,Bachelor 1,,,,,,,,,,,,,,,,,
,,,,1,['f'],0.554823033,s2,blue,pink,s2,s1,sea2,-5,-1,-1,-1,374,0,2,volgorde5
,,,,2,['j'],0.388126271,s3,yellow,white,s4,s3,sea1,-4,0,0,-4,370,0,2,volgorde5
,,,,3,['f'],0.460729716,s3,white,yellow,s3,s4,sea1,-3,-1,-1,-3,367,0,2,volgorde5
,,,,4,['f'],0.594002067,s1,pink,blue,s1,s2,sea1,-2,0,0,-2,365,0,2,volgorde5
,,,,5,['j'],0.569611151,s1,blue,pink,s2,s1,sea1,-3,-1,-1,-3,362,0,2,volgorde5
,,,,6,['f'],0.538529386,s3,white,yellow,s3,s4,sea1,-4,-2,-2,-4,358,0,2,volgorde5
,,,,7,['f'],0.67678371,s4,yellow,white,s4,s3,sea2,-3,-1,-1,-1,357,0,2,volgorde5
,,,,8,['f'],0.65733243,s2,blue,pink,s2,s1,sea2,-2,-2,-2,-2,355,0,2,volgorde5
,,,,9,['f'],0.606569097,s3,white,yellow,s3,s4,sea1,-3,-1,-1,-3,352,0,2,volgorde5
,,,,10,['f'],0.42218285,s2,blue,pink,s2,s1,sea2,-2,0,0,0,352,0,2,volgorde5
,,,,11,['f'],0.941420682,s3,white,yellow,s3,s4,sea1,-1,-1,-1,-1,351,0,2,volgorde5
,,,,12,['j'],0.399299708,s4,white,yellow,s3,s4,sea2,0,0,0,0,351,0,2,volgorde5
,,,,13,['f'],0.695259957,s2,blue,pink,s2,s1,sea2,-1,-1,-1,-1,350,0,2,volgorde5
,,,,14,['j'],1.531518445,s3,yellow,white,s4,s3,sea1,0,-2,0,0,350,0,2,volgorde5
,,,,15,['f'],0.813970308,s2,blue,pink,s2,s1,sea2,-1,-1,-1,-1,349,0,2,volgorde5
,,,,16,['j'],0.789510754,s4,white,yellow,s3,s4,sea2,-2,0,0,0,349,0,2,volgorde5
,,,,17,['j'],1.022080985,s1,blue,pink,s2,s1,sea1,-3,-1,-1,-3,346,0,2,volgorde5
,,,,18,['f'],0.74126968,s1,pink,blue,s1,s2,sea1,-4,0,0,-4,342,0,2,volgorde5
,,,,19,['j'],1.710810782,s4,white,yellow,s3,s4,sea2,-5,-1,-1,-1,341,0,2,volgorde5
,,,,20,['f'],0.954278939,s4,yellow,white,s4,s3,sea2,-4,0,0,0,341,0,2,volgorde5
,,,,21,['j'],1.364118311,s3,yellow,white,s4,s3,sea1,-5,-1,-1,-5,336,0,2,volgorde5
,,,,22,['f'],0.756960666,s3,white,yellow,s3,s4,sea1,-4,-2,-2,-4,332,0,2,volgorde5
,,,,23,['j'],0.822519814,s3,yellow,white,s4,s3,sea1,-5,-3,-3,-5,327,0,2,volgorde5
,,,,24,['j'],0.645418416,s3,yellow,white,s4,s3,sea1,-4,-4,-4,-4,323,0,2,volgorde5
,,,,25,['j'],1.147317647,s1,blue,pink,s2,s1,sea1,-5,-5,-5,-5,318,0,2,volgorde5
,,,,26,['f'],0.740533273,s1,pink,blue,s1,s2,sea1,-4,-4,-4,-4,314,0,2,volgorde5
,,,,27,['j'],0.502412727,s1,blue,pink,s2,s1,sea1,-3,-5,-3,-3,311,0,2,volgorde5
,,,,28,['j'],1.177337138,s4,white,yellow,s3,s4,sea2,-4,-4,-4,-4,307,0,2,volgorde5
,,,,29,['j'],1.057865042,s1,blue,pink,s2,s1,sea1,-3,-5,-3,-3,304,0,2,volgorde5
,,,,30,['f'],0.823361743,s4,yellow,white,s4,s3,sea2,-4,-4,-4,-4,300,0,2,volgorde5
,,,,31,['f'],0.526276997,s1,pink,blue,s1,s2,sea1,-3,-3,-3,-3,297,0,2,volgorde5
,,,,32,['f'],0.880530149,s1,pink,blue,s1,s2,sea1,-2,-2,-2,-2,295,0,2,volgorde5
,,,,33,['f'],1.148757746,s3,white,yellow,s3,s4,sea1,-1,-1,-1,-1,294,0,2,volgorde5
,,,,34,['f'],1.758572358,s1,pink,blue,s1,s2,sea1,0,-2,0,0,294,0,2,volgorde5
,,,,35,['j'],1.528000305,s1,blue,pink,s2,s1,sea1,-1,-3,-1,-1,293,0,2,volgorde5
,,,,36,['f'],0.530829507,s4,yellow,white,s4,s3,sea2,0,-4,0,-4,289,0,2,volgorde5
,,,,37,['f'],0.789420949,s1,pink,blue,s1,s2,sea1,-1,-5,-1,-1,288,0,2,volgorde5
,,,,38,['f'],0.381631071,s1,pink,blue,s1,s2,sea1,-2,-4,-2,-2,286,0,2,volgorde5
,,,,39,['f'],1.078221757,s4,yellow,white,s4,s3,sea2,-3,-5,-3,-5,281,0,2,volgorde5
,,,,40,['f'],0.459100705,s1,pink,blue,s1,s2,sea1,-4,-4,-4,-4,277,0,2,volgorde5
,,,,41,['j'],0.288388022,s3,yellow,white,s4,s3,sea1,-5,-5,-5,-5,272,0,2,volgorde5
,,,,42,['j'],0.628670288,s3,yellow,white,s4,s3,sea1,-4,-4,-4,-4,268,0,2,volgorde5
,,,,43,['j'],0.946901718,s1,blue,pink,s2,s1,sea1,-5,-3,-3,-5,263,0,2,volgorde5
,,,,44,['f'],1.268772846,s4,yellow,white,s4,s3,sea2,-4,-2,-2,-2,261,0,2,volgorde5
,,,,45,['j'],1.441603661,s1,blue,pink,s2,s1,sea1,-3,-1,-1,-3,258,0,2,volgorde5
,,,,46,None,2.000059015,s1,yellow,white,s4,s3,sea1,-4,0,0,None,258,0,2,volgorde5
,,,,47,None,2.000075052,s1,pink,blue,s1,s2,sea1,-3,-1,-1,None,258,0,2,volgorde5
,,,,48,['j'],0.320701408,s4,white,yellow,s3,s4,sea2,-2,0,0,0,258,0,2,volgorde5
,,,,49,['f'],1.124306531,s3,white,yellow,s3,s4,sea1,-1,-1,-1,-1,257,0,2,volgorde5
,,,,50,['j'],1.182767498,s2,pink,blue,s1,s2,sea2,-2,0,0,0,257,0,2,volgorde5
,,,,51,['f'],1.135350392,s1,pink,blue,s1,s2,sea1,-3,-1,-1,-3,254,0,2,volgorde5
,,,,52,['f'],1.16950704,s1,pink,blue,s1,s2,sea1,-4,0,0,-4,250,0,2,volgorde5
,,,,53,['j'],1.274013973,s3,yellow,white,s4,s3,sea1,-3,-1,-1,-3,247,0,2,volgorde5
,,,,54,['j'],1.318841468,s2,pink,blue,s1,s2,sea2,-2,-2,-2,-2,245,0,2,volgorde5
,,,,55,['f'],0.609674772,s4,yellow,white,s4,s3,sea2,-3,-3,-3,-3,242,0,2,volgorde5
,,,,56,['j'],0.584914369,s3,yellow,white,s4,s3,sea1,-4,-4,-4,-4,238,0,2,volgorde5
,,,,57,['f'],0.329184202,s4,yellow,white,s4,s3,sea2,-3,-3,-3,-3,235,0,2,volgorde5
,,,,58,['j'],0.331480983,s4,white,yellow,s3,s4,sea2,-4,-2,-2,-2,233,0,2,volgorde5
,,,,59,['j'],1.445734083,s2,pink,blue,s1,s2,sea2,-3,-1,-1,-1,232,0,2,volgorde5
,,,,60,['f'],1.267535452,s4,yellow,white,s4,s3,sea2,-4,-2,-2,-2,230,0,2,volgorde5
,,,,61,['j'],0.88040827,s2,pink,blue,s1,s2,sea2,-5,-3,-3,-3,227,0,2,volgorde5
,,,,62,['f'],0.396958665,s1,pink,blue,s1,s2,sea1,-4,-4,-4,-4,223,0,2,volgorde5
,,,,63,['j'],0.364881019,s2,pink,blue,s1,s2,sea2,-5,-5,-5,-5,218,0,2,volgorde5
,,,,64,['f'],0.646523347,s1,pink,blue,s1,s2,sea1,-4,-4,-4,-4,214,0,2,volgorde5
,,,,65,['j'],0.668095005,s1,blue,pink,s2,s1,sea1,-3,-5,-3,-3,211,0,2,volgorde5
,,,,66,['f'],0.456648687,s2,blue,pink,s2,s1,sea2,-4,-4,-4,-4,207,0,2,volgorde5
,,,,67,['j'],0.525936377,s2,pink,blue,s1,s2,sea2,-5,-3,-3,-3,204,0,2,volgorde5
,,,,68,['f'],0.496170908,s2,blue,pink,s2,s1,sea2,-4,-4,-4,-4,200,0,2,volgorde5
,,,,69,['j'],0.508440937,s2,pink,blue,s1,s2,sea2,-3,-3,-3,-3,197,0,2,volgorde5
,,,,70,['f'],0.439732815,s2,blue,pink,s2,s1,sea2,-4,-4,-4,-4,193,0,2,volgorde5
,,,,71,['j'],0.693638964,s3,yellow,white,s4,s3,sea1,-5,-5,-5,-5,188,0,2,volgorde5
,,,,72,['f'],0.537546013,s4,yellow,white,s4,s3,sea2,-4,-4,-4,-4,184,0,2,volgorde5
,,,,73,['f'],1.339814955,s1,pink,blue,s1,s2,sea1,-5,-5,-5,-5,179,0,2,volgorde5
,,,,74,['j'],0.61397358,s4,white,yellow,s3,s4,sea2,-4,-4,-4,-4,175,0,2,volgorde5
,,,,75,['f'],0.381243944,s1,pink,blue,s1,s2,sea1,-5,-3,-3,-5,170,0,2,volgorde5
,,,,76,['j'],0.981471794,s1,blue,pink,s2,s1,sea1,-4,-2,-2,-4,166,0,2,volgorde5
,,,,77,['f'],0.726369946,s4,yellow,white,s4,s3,sea2,-3,-1,-1,-1,165,0,2,volgorde5
,,,,78,['j'],0.800943666,s4,white,yellow,s3,s4,sea2,-4,-2,-2,-2,163,0,2,volgorde5
,,,,79,['j'],0.608483563,s1,blue,pink,s2,s1,sea1,-5,-1,-1,-5,158,0,2,volgorde5
,,,,80,['j'],0.543432459,s1,blue,pink,s2,s1,sea1,-4,0,0,-4,154,0,2,volgorde5
,,,,81,['j'],0.944997837,s4,white,yellow,s3,s4,sea2,-3,-1,-1,-1,153,0,2,volgorde5
,,,,82,['j'],0.634866563,s3,yellow,white,s4,s3,sea1,-2,0,0,-2,151,0,2,volgorde5
,,,,83,['f'],1.193424552,s4,yellow,white,s4,s3,sea2,-1,-1,-1,-1,150,0,2,volgorde5
,,,,84,['j'],0.825303471,s1,blue,pink,s2,s1,sea1,-2,-2,-2,-2,148,0,2,volgorde5
,,,,85,['f'],0.951528317,s1,pink,blue,s1,s2,sea1,-3,-3,-3,-3,145,0,2,volgorde5
,,,,86,['j'],0.393038324,s4,white,yellow,s3,s4,sea2,-2,-4,-2,-4,141,0,2,volgorde5
,,,,87,['f'],0.440669681,s1,pink,blue,s1,s2,sea1,-3,-5,-3,-3,138,0,2,volgorde5
,,,,88,['j'],0.742585013,s1,blue,pink,s2,s1,sea1,-4,-4,-4,-4,134,0,2,volgorde5
,,,,89,['f'],0.816183378,s1,pink,blue,s1,s2,sea1,-3,-5,-3,-3,131,0,2,volgorde5
,,,,90,['f'],0.639029059,s1,pink,blue,s1,s2,sea1,-2,-4,-2,-2,129,0,2,volgorde5
,,,,91,['j'],0.909295567,s1,blue,pink,s2,s1,sea1,-1,-3,-1,-1,128,0,2,volgorde5
,,,,92,['j'],1.04049982,s4,white,yellow,s3,s4,sea2,0,-2,0,-2,126,0,2,volgorde5
,,,,93,['j'],0.718692839,s4,white,yellow,s3,s4,sea2,-1,-1,-1,-1,125,0,2,volgorde5
,,,,94,['f'],0.505274002,s4,yellow,white,s4,s3,sea2,0,-2,0,-2,123,0,2,volgorde5
,,,,95,['j'],1.028859714,s1,blue,pink,s2,s1,sea1,-1,-3,-1,-1,122,0,2,volgorde5
,,,,96,['f'],0.715732778,s4,yellow,white,s4,s3,sea2,-2,-2,-2,-2,120,0,2,volgorde5
,,,,97,['f'],0.774945547,s1,pink,blue,s1,s2,sea1,-3,-1,-1,-3,117,0,2,volgorde5
,,,,98,['j'],1.135839191,s4,white,yellow,s3,s4,sea2,-4,0,0,0,117,0,2,volgorde5
,,,,99,['f'],0.786694062,s2,blue,pink,s2,s1,sea2,-5,-1,-1,-1,116,0,2,volgorde5
,,,,100,['j'],0.722937443,s2,pink,blue,s1,s2,sea2,-4,0,0,0,116,0,2,volgorde5
,,,,101,['f'],0.374159555,s1,pink,blue,s1,s2,sea1,-5,-1,-1,-5,111,0,2,volgorde5
,,,,102,['f'],0.854123414,s2,blue,pink,s2,s1,sea2,-4,-2,-2,-2,109,0,2,volgorde5
,,,,103,['j'],0.795665975,s2,pink,blue,s1,s2,sea2,-5,-3,-3,-3,106,0,2,volgorde5
,,,,104,['f'],1.003870306,s2,blue,pink,s2,s1,sea2,-4,-2,-2,-2,104,0,2,volgorde5
,,,,105,['j'],1.227070271,s3,yellow,white,s4,s3,sea1,-3,-1,-1,-3,101,0,2,volgorde5
,,,,106,['j'],0.633915264,s3,yellow,white,s4,s3,sea1,-2,-2,-2,-2,99,0,2,volgorde5
,,,,107,['j'],1.128178441,s2,pink,blue,s1,s2,sea2,-3,-3,-3,-3,96,0,2,volgorde5
,,,,108,['j'],0.874704002,s3,yellow,white,s4,s3,sea1,-4,-4,-4,-4,92,0,2,volgorde5
,,,,109,['f'],1.735234414,s3,white,yellow,s3,s4,sea1,-5,-5,-5,-5,87,0,2,volgorde5
,,,,110,['f'],1.281008557,s2,blue,pink,s2,s1,sea2,-4,-4,-4,-4,83,0,2,volgorde5
,,,,111,['f'],1.053159542,s2,blue,pink,s2,s1,sea2,-3,-5,-3,-5,78,0,2,volgorde5
,,,,112,['f'],1.282699471,s1,pink,blue,s1,s2,sea1,-4,-4,-4,-4,74,0,2,volgorde5
,,,,113,['j'],1.094839987,s4,white,yellow,s3,s4,sea2,-3,-5,-3,-5,69,0,2,volgorde5
,,,,114,['j'],1.987038467,s4,white,yellow,s3,s4,sea2,-2,-4,-2,-4,65,0,2,volgorde5
,,,,115,['f'],1.242422561,s4,yellow,white,s4,s3,sea2,-1,-3,-1,-3,62,0,2,volgorde5
,,,,116,['f'],1.520593898,s1,pink,blue,s1,s2,sea1,-2,-4,-2,-2,60,0,2,volgorde5
,,,,117,['f'],0.843412477,s3,white,yellow,s3,s4,sea1,-1,-3,-1,-1,59,0,2,volgorde5
,,,,118,['f'],1.368937351,s1,pink,blue,s1,s2,sea1,0,-4,0,0,59,0,2,volgorde5
,,,,119,['j'],0.4821378,s1,blue,pink,s2,s1,sea1,-1,-5,-1,-1,58,0,2,volgorde5
,,,,120,['j'],1.070700526,s4,white,yellow,s3,s4,sea2,0,-4,0,-4,54,0,2,volgorde5
,,,,121,['j'],0.563580054,s1,blue,pink,s2,s1,sea1,-1,-3,-1,-1,53,0,2,volgorde5
,,,,122,['j'],1.012499675,s3,yellow,white,s4,s3,sea1,-2,-2,-2,-2,51,0,2,volgorde5
,,,,123,['f'],0.924008633,s4,yellow,white,s4,s3,sea2,-3,-1,-1,-1,50,0,2,volgorde5
,,,,124,['j'],1.151544611,s3,yellow,white,s4,s3,sea1,-2,-2,-2,-2,48,0,2,volgorde5
,,,,125,['f'],0.880763965,s1,pink,blue,s1,s2,sea1,-1,-1,-1,-1,47,0,2,volgorde5
,,,,126,None,2.000069599,s1,white,yellow,s3,s4,sea1,3,1,3,None,0,1,1,volgorde5
,,,,127,['f'],0.635072475,s1,pink,blue,s1,s2,sea1,4,2,4,4,4,1,1,volgorde5
,,,,128,['j'],1.081659071,s1,blue,pink,s2,s1,sea1,3,3,3,3,7,1,1,volgorde5
,,,,129,['f'],1.262504727,s3,white,yellow,s3,s4,sea1,2,4,4,2,9,1,1,volgorde5
,,,,130,['j'],0.843680932,s3,yellow,white,s4,s3,sea1,3,3,3,3,12,1,1,volgorde5
,,,,131,['f'],0.80954032,s3,white,yellow,s3,s4,sea1,2,2,2,2,14,1,1,volgorde5
,,,,132,['j'],0.449119759,s3,yellow,white,s4,s3,sea1,1,1,1,1,15,1,1,volgorde5
,,,,133,['f'],1.351041314,s1,pink,blue,s1,s2,sea1,2,2,2,2,17,1,1,volgorde5
,,,,134,['j'],0.696533916,s3,yellow,white,s4,s3,sea1,3,1,3,3,20,1,1,volgorde5
,,,,135,['f'],0.636453559,s3,white,yellow,s3,s4,sea1,2,0,2,2,22,1,1,volgorde5
,,,,136,['j'],0.843023105,s2,pink,blue,s1,s2,sea2,1,1,1,1,23,1,1,volgorde5
,,,,137,['f'],0.592586665,s1,pink,blue,s1,s2,sea1,0,0,0,0,23,1,1,volgorde5
,,,,138,['j'],0.600163382,s3,yellow,white,s4,s3,sea1,1,1,1,1,24,1,1,volgorde5
,,,,139,['j'],0.752074272,s1,blue,pink,s2,s1,sea1,0,0,0,0,24,1,1,volgorde5
,,,,140,['j'],0.753966928,s3,yellow,white,s4,s3,sea1,1,1,1,1,25,1,1,volgorde5
,,,,141,['j'],0.667540134,s3,yellow,white,s4,s3,sea1,2,0,2,2,27,1,1,volgorde5
,,,,142,['f'],0.736125736,s1,pink,blue,s1,s2,sea1,1,1,1,1,28,1,1,volgorde5
,,,,143,['f'],1.465993295,s2,blue,pink,s2,s1,sea2,2,2,2,2,30,1,1,volgorde5
,,,,144,['j'],1.180813261,s4,white,yellow,s3,s4,sea2,1,3,3,3,33,1,1,volgorde5
,,,,145,['j'],1.061310054,s3,yellow,white,s4,s3,sea1,2,2,2,2,35,1,1,volgorde5
,,,,146,['f'],0.666173484,s1,pink,blue,s1,s2,sea1,1,3,3,1,36,1,1,volgorde5
,,,,147,['j'],0.342775658,s2,pink,blue,s1,s2,sea2,2,4,4,4,40,1,1,volgorde5
,,,,148,['f'],0.608380286,s1,pink,blue,s1,s2,sea1,1,3,3,1,41,1,1,volgorde5
,,,,149,['f'],0.399629102,s4,yellow,white,s4,s3,sea2,2,4,4,4,45,1,1,volgorde5
,,,,150,['j'],1.127232274,s4,white,yellow,s3,s4,sea2,3,3,3,3,48,1,1,volgorde5
,,,,151,['f'],0.441763387,s4,yellow,white,s4,s3,sea2,2,2,2,2,50,1,1,volgorde5
,,,,152,['f'],0.375679196,s4,yellow,white,s4,s3,sea2,1,1,1,1,51,1,1,volgorde5
,,,,153,['j'],0.583954409,s4,white,yellow,s3,s4,sea2,0,2,2,2,53,1,1,volgorde5
,,,,154,['f'],0.472552321,s3,white,yellow,s3,s4,sea1,1,1,1,1,54,1,1,volgorde5
,,,,155,['f'],0.87783309,s1,pink,blue,s1,s2,sea1,0,2,2,0,54,1,1,volgorde5
,,,,156,['f'],1.130033892,s2,blue,pink,s2,s1,sea2,1,3,3,3,57,1,1,volgorde5
,,,,157,['j'],0.612543744,s4,white,yellow,s3,s4,sea2,0,4,4,4,61,1,1,volgorde5
,,,,158,['j'],0.835475254,s3,yellow,white,s4,s3,sea1,1,3,3,1,62,1,1,volgorde5
,,,,159,['f'],0.466025689,s4,yellow,white,s4,s3,sea2,0,2,2,2,64,1,1,volgorde5
,,,,160,['f'],0.535296059,s3,white,yellow,s3,s4,sea1,1,1,1,1,65,1,1,volgorde5
,,,,161,['f'],0.497569953,s1,pink,blue,s1,s2,sea1,2,2,2,2,67,1,1,volgorde5
,,,,162,['j'],0.517494317,s1,blue,pink,s2,s1,sea1,1,1,1,1,68,1,1,volgorde5
,,,,163,['f'],0.760400867,s4,yellow,white,s4,s3,sea2,0,2,2,2,70,1,1,volgorde5
,,,,164,['j'],0.577650047,s4,white,yellow,s3,s4,sea2,1,3,3,3,73,1,1,volgorde5
,,,,165,['f'],0.393906553,s2,blue,pink,s2,s1,sea2,0,2,2,2,75,1,1,volgorde5
,,,,166,['j'],0.649838462,s2,pink,blue,s1,s2,sea2,1,3,3,3,78,1,1,volgorde5
,,,,167,['f'],0.663768614,s4,yellow,white,s4,s3,sea2,2,4,4,4,82,1,1,volgorde5
,,,,168,['j'],0.036674737,s3,yellow,white,s4,s3,sea1,1,5,5,1,83,1,1,volgorde5
,,,,169,['f'],0.682981268,s2,blue,pink,s2,s1,sea2,0,4,4,4,87,1,1,volgorde5
,,,,170,['j'],0.622913099,s1,blue,pink,s2,s1,sea1,1,5,5,1,88,1,1,volgorde5
,,,,171,['f'],0.670155726,s3,white,yellow,s3,s4,sea1,0,4,4,0,88,1,1,volgorde5
,,,,172,['f'],0.587066178,s3,white,yellow,s3,s4,sea1,1,5,5,1,89,1,1,volgorde5
,,,,173,['j'],0.834955663,s3,yellow,white,s4,s3,sea1,0,4,4,0,89,1,1,volgorde5
,,,,174,['f'],1.209185459,s3,white,yellow,s3,s4,sea1,1,5,5,1,90,1,1,volgorde5
,,,,175,['j'],0.808346224,s1,blue,pink,s2,s1,sea1,2,4,4,2,92,1,1,volgorde5
,,,,176,['f'],0.575271157,s1,pink,blue,s1,s2,sea1,1,3,3,1,93,1,1,volgorde5
,,,,177,['f'],0.407499933,s1,pink,blue,s1,s2,sea1,0,2,2,0,93,1,1,volgorde5
,,,,178,['f'],0.438760347,s1,pink,blue,s1,s2,sea1,1,3,3,1,94,1,1,volgorde5
,,,,179,['f'],0.804729298,s4,yellow,white,s4,s3,sea2,0,4,4,4,98,1,1,volgorde5
,,,,180,['f'],0.716292781,s1,pink,blue,s1,s2,sea1,1,3,3,1,99,1,1,volgorde5
,,,,181,['f'],0.383196898,s1,pink,blue,s1,s2,sea1,2,2,2,2,101,1,1,volgorde5
,,,,182,['f'],1.015447869,s2,blue,pink,s2,s1,sea2,3,1,3,1,102,1,1,volgorde5
,,,,183,['f'],0.414994222,s2,blue,pink,s2,s1,sea2,2,0,2,0,102,1,1,volgorde5
,,,,184,['f'],0.629917305,s2,blue,pink,s2,s1,sea2,3,1,3,1,103,1,1,volgorde5
,,,,185,['f'],0.924498074,s4,yellow,white,s4,s3,sea2,4,0,4,0,103,1,1,volgorde5
,,,,186,['j'],0.455064258,s3,yellow,white,s4,s3,sea1,5,1,5,5,108,1,1,volgorde5
,,,,187,['f'],1.148983864,s4,yellow,white,s4,s3,sea2,4,2,4,2,110,1,1,volgorde5
,,,,188,['j'],0.478837118,s3,yellow,white,s4,s3,sea1,3,3,3,3,113,1,1,volgorde5
,,,,189,['f'],0.419436398,s2,blue,pink,s2,s1,sea2,2,2,2,2,115,1,1,volgorde5
,,,,190,['j'],0.578696925,s2,pink,blue,s1,s2,sea2,3,1,3,1,116,1,1,volgorde5
,,,,191,['f'],0.107632814,s2,blue,pink,s2,s1,sea2,4,2,4,2,118,1,1,volgorde5
,,,,192,['f'],0.455298715,s4,yellow,white,s4,s3,sea2,5,1,5,1,119,1,1,volgorde5
,,,,193,['j'],0.477203295,s1,blue,pink,s2,s1,sea1,4,2,4,4,123,1,1,volgorde5
,,,,194,['j'],0.609823913,s3,yellow,white,s4,s3,sea1,5,3,5,5,128,1,1,volgorde5
,,,,195,['f'],0.809073009,s1,pink,blue,s1,s2,sea1,4,4,4,4,132,1,1,volgorde5
,,,,196,['f'],0.911973061,s2,blue,pink,s2,s1,sea2,3,5,5,5,137,1,1,volgorde5
,,,,197,['f'],1.755149798,s2,blue,pink,s2,s1,sea2,2,4,4,4,141,1,1,volgorde5
,,,,198,['j'],0.43627786,s4,white,yellow,s3,s4,sea2,3,3,3,3,144,1,1,volgorde5
,,,,199,['j'],0.426209996,s4,white,yellow,s3,s4,sea2,2,2,2,2,146,1,1,volgorde5
,,,,200,['f'],0.352821391,s4,yellow,white,s4,s3,sea2,1,1,1,1,147,1,1,volgorde5
,,,,201,['f'],0.634459871,s3,white,yellow,s3,s4,sea1,0,0,0,0,147,1,1,volgorde5
,,,,202,['j'],0.584335442,s1,blue,pink,s2,s1,sea1,1,1,1,1,148,1,1,volgorde5
,,,,203,['f'],0.576584566,s2,blue,pink,s2,s1,sea2,2,0,2,0,148,1,1,volgorde5
,,,,204,['j'],0.80085835,s3,yellow,white,s4,s3,sea1,3,1,3,3,151,1,1,volgorde5
,,,,205,['j'],0.304412252,s4,white,yellow,s3,s4,sea2,2,0,2,0,151,1,1,volgorde5
,,,,206,['j'],0.516035936,s4,white,yellow,s3,s4,sea2,1,1,1,1,152,1,1,volgorde5
,,,,207,['j'],0.414981072,s2,pink,blue,s1,s2,sea2,2,2,2,2,154,1,1,volgorde5
,,,,208,['j'],0.542250872,s2,pink,blue,s1,s2,sea2,3,1,3,1,155,1,1,volgorde5
,,,,209,['f'],1.144143335,s1,pink,blue,s1,s2,sea1,4,0,4,4,159,1,1,volgorde5
,,,,210,['f'],0.84202594,s1,pink,blue,s1,s2,sea1,5,1,5,5,164,1,1,volgorde5
,,,,211,['j'],0.767884251,s3,yellow,white,s4,s3,sea1,4,2,4,4,168,1,1,volgorde5
,,,,212,['f'],0.752474228,s2,blue,pink,s2,s1,sea2,3,3,3,3,171,1,1,volgorde5
,,,,213,['f'],0.650005885,s1,pink,blue,s1,s2,sea1,4,2,4,4,175,1,1,volgorde5
,,,,214,['j'],0.503610992,s2,pink,blue,s1,s2,sea2,5,3,5,3,178,1,1,volgorde5
,,,,215,['f'],0.371202059,s2,blue,pink,s2,s1,sea2,4,2,4,2,180,1,1,volgorde5
,,,,216,['j'],0.420138166,s1,blue,pink,s2,s1,sea1,5,1,5,5,185,1,1,volgorde5
,,,,217,['j'],0.330754519,s4,white,yellow,s3,s4,sea2,4,0,4,0,185,1,1,volgorde5
,,,,218,['j'],0.653033301,s4,white,yellow,s3,s4,sea2,3,1,3,1,186,1,1,volgorde5
,,,,219,['f'],0.442273997,s2,blue,pink,s2,s1,sea2,2,0,2,0,186,1,1,volgorde5
,,,,220,['f'],1.152867,s1,pink,blue,s1,s2,sea1,3,1,3,3,189,1,1,volgorde5
,,,,221,['j'],1.138712654,s1,blue,pink,s2,s1,sea1,2,2,2,2,191,1,1,volgorde5
,,,,222,['j'],1.18888808,s4,white,yellow,s3,s4,sea2,3,3,3,3,194,1,1,volgorde5
,,,,223,['j'],0.405087046,s1,blue,pink,s2,s1,sea1,4,4,4,4,198,1,1,volgorde5
,,,,224,['f'],0.540703326,s4,yellow,white,s4,s3,sea2,5,5,5,5,203,1,1,volgorde5
,,,,225,['f'],1.990913584,s1,pink,blue,s1,s2,sea1,4,4,4,4,207,1,1,volgorde5
,,,,226,['j'],0.055052839,s2,pink,blue,s1,s2,sea2,5,5,5,5,212,1,1,volgorde5
,,,,227,['f'],1.028690045,s1,pink,blue,s1,s2,sea1,4,4,4,4,216,1,1,volgorde5
,,,,228,['j'],0.243218625,s2,pink,blue,s1,s2,sea2,5,3,5,3,219,1,1,volgorde5
,,,,229,None,2.000073128,s2,pink,blue,s1,s2,sea2,4,4,4,None,219,1,1,volgorde5
,,,,230,['f'],1.765935787,s3,white,yellow,s3,s4,sea1,3,3,3,3,222,1,1,volgorde5
,,,,231,['j'],0.662738093,s3,yellow,white,s4,s3,sea1,4,4,4,4,226,1,1,volgorde5
,,,,232,['f'],0.371985294,s1,pink,blue,s1,s2,sea1,3,5,5,3,229,1,1,volgorde5
,,,,233,['f'],0.412939916,s3,white,yellow,s3,s4,sea1,2,4,4,2,231,1,1,volgorde5
,,,,234,['j'],0.372220713,s1,blue,pink,s2,s1,sea1,3,5,5,3,234,1,1,volgorde5
,,,,235,['f'],0.445188193,s1,pink,blue,s1,s2,sea1,4,4,4,4,238,1,1,volgorde5
,,,,236,['f'],0.435082161,s3,white,yellow,s3,s4,sea1,5,3,5,5,243,1,1,volgorde5
,,,,237,['j'],0.409054535,s1,blue,pink,s2,s1,sea1,4,2,4,4,247,1,1,volgorde5
,,,,238,['j'],0.496312352,s3,yellow,white,s4,s3,sea1,5,3,5,5,252,1,1,volgorde5
,,,,239,['f'],1.180262239,s2,blue,pink,s2,s1,sea2,4,2,4,2,254,1,1,volgorde5
,,,,240,['j'],0.428766252,s2,pink,blue,s1,s2,sea2,5,3,5,3,257,1,1,volgorde5
,,,,241,['f'],0.531370907,s3,white,yellow,s3,s4,sea1,4,4,4,4,261,1,1,volgorde5
,,,,242,['j'],0.373627456,s3,yellow,white,s4,s3,sea1,3,3,3,3,264,1,1,volgorde5
,,,,243,['f'],0.446900275,s1,pink,blue,s1,s2,sea1,4,2,4,4,268,1,1,volgorde5
,,,,244,['j'],0.44450599,s4,white,yellow,s3,s4,sea2,5,3,5,3,271,1,1,volgorde5
,,,,245,['j'],0.290468308,s4,white,yellow,s3,s4,sea2,4,4,4,4,275,1,1,volgorde5
,,,,246,['f'],0.438053769,s2,blue,pink,s2,s1,sea2,3,5,5,5,280,1,1,volgorde5
,,,,247,['j'],0.523994328,s1,blue,pink,s2,s1,sea1,4,4,4,4,284,1,1,volgorde5
,,,,248,['j'],0.446292162,s3,yellow,white,s4,s3,sea1,3,5,5,3,287,1,1,volgorde5
,,,,249,['f'],0.300208061,s1,pink,blue,s1,s2,sea1,2,4,4,2,289,1,1,volgorde5
,,,,250,['f'],0.359825918,s1,pink,blue,s1,s2,sea1,1,3,3,1,290,1,1,volgorde5
,,,,251,['f'],1.470960514,s2,blue,pink,s2,s1,sea2,-4,0,0,0,375,0,2,volgorde5
,,,,252,['f'],0.515803083,s2,blue,pink,s2,s1,sea2,-3,-1,-1,-1,374,0,2,volgorde5
,,,,253,['f'],1.278702153,s3,white,yellow,s3,s4,sea1,-2,0,0,-2,372,0,2,volgorde5
,,,,254,['j'],0.819206303,s3,yellow,white,s4,s3,sea1,-3,-1,-1,-3,369,0,2,volgorde5
,,,,255,['j'],0.746438962,s1,blue,pink,s2,s1,sea1,-2,0,0,-2,367,0,2,volgorde5
,,,,256,['f'],0.49235224,s3,white,yellow,s3,s4,sea1,-1,-1,-1,-1,366,0,2,volgorde5
,,,,257,['j'],1.800263067,s4,white,yellow,s3,s4,sea2,-2,0,0,0,366,0,2,volgorde5
,,,,258,['j'],0.720029982,s1,blue,pink,s2,s1,sea1,-3,-1,-1,-3,363,0,2,volgorde5
,,,,259,['f'],0.48329469,s2,blue,pink,s2,s1,sea2,-4,-2,-2,-2,361,0,2,volgorde5
,,,,260,['f'],0.823223186,s4,yellow,white,s4,s3,sea2,-5,-3,-3,-3,358,0,2,volgorde5
,,,,261,['f'],1.15009521,s2,blue,pink,s2,s1,sea2,-4,-4,-4,-4,354,0,2,volgorde5
,,,,262,['j'],0.623285151,s3,yellow,white,s4,s3,sea1,-5,-3,-3,-5,349,0,2,volgorde5
,,,,263,['j'],0.389855031,s4,white,yellow,s3,s4,sea2,-4,-4,-4,-4,345,0,2,volgorde5
,,,,264,['j'],0.398129988,s3,yellow,white,s4,s3,sea1,-5,-3,-3,-5,340,0,2,volgorde5
,,,,265,['f'],0.326087187,s2,blue,pink,s2,s1,sea2,-4,-2,-2,-2,338,0,2,volgorde5
,,,,266,['f'],0.409024707,s2,blue,pink,s2,s1,sea2,-3,-1,-1,-1,337,0,2,volgorde5
,,,,267,['f'],1.312353003,s4,yellow,white,s4,s3,sea2,-4,0,0,0,337,0,2,volgorde5
,,,,268,['j'],0.091796535,s3,yellow,white,s4,s3,sea1,-3,-1,-1,-3,334,0,2,volgorde5
,,,,269,['f'],0.704127953,s3,white,yellow,s3,s4,sea1,-2,0,0,-2,332,0,2,volgorde5
,,,,270,['f'],1.268008535,s1,pink,blue,s1,s2,sea1,-1,-1,-1,-1,331,0,2,volgorde5
,,,,271,['f'],0.528197878,s1,pink,blue,s1,s2,sea1,0,0,0,0,331,0,2,volgorde5
,,,,272,['j'],0.882766953,s3,yellow,white,s4,s3,sea1,-1,-1,-1,-1,330,0,2,volgorde5
,,,,273,['f'],1.071351618,s1,pink,blue,s1,s2,sea1,-2,-2,-2,-2,328,0,2,volgorde5
,,,,274,['f'],0.692198865,s3,white,yellow,s3,s4,sea1,-1,-3,-1,-1,327,0,2,volgorde5
,,,,275,['f'],1.584077251,s3,white,yellow,s3,s4,sea1,-2,-2,-2,-2,325,0,2,volgorde5
,,,,276,['f'],1.04019865,s1,pink,blue,s1,s2,sea1,-3,-1,-1,-3,322,0,2,volgorde5
,,,,277,['j'],1.126407665,s3,yellow,white,s4,s3,sea1,-4,0,0,-4,318,0,2,volgorde5
,,,,278,['f'],0.464933587,s4,yellow,white,s4,s3,sea2,-3,-1,-1,-1,317,0,2,volgorde5
,,,,279,['j'],1.182196591,s3,yellow,white,s4,s3,sea1,-4,-2,-2,-4,313,0,2,volgorde5
,,,,280,['f'],0.878746864,s2,blue,pink,s2,s1,sea2,-3,-1,-1,-1,312,0,2,volgorde5
,,,,281,['f'],1.155258078,s1,pink,blue,s1,s2,sea1,-4,-2,-2,-4,308,0,2,volgorde5
,,,,282,['j'],0.684424575,s2,pink,blue,s1,s2,sea2,-5,-3,-3,-3,305,0,2,volgorde5
,,,,283,['j'],1.056992002,s1,blue,pink,s2,s1,sea1,-4,-2,-2,-4,301,0,2,volgorde5
,,,,284,['j'],1.12652345,s3,yellow,white,s4,s3,sea1,-5,-3,-3,-5,296,0,2,volgorde5
,,,,285,['j'],0.376735376,s1,blue,pink,s2,s1,sea1,-4,-2,-2,-4,292,0,2,volgorde5
,,,,286,['j'],0.481314474,s1,blue,pink,s2,s1,sea1,-3,-1,-1,-3,289,0,2,volgorde5
,,,,287,['f'],0.533947369,s1,pink,blue,s1,s2,sea1,-2,-2,-2,-2,287,0,2,volgorde5
,,,,288,['j'],0.448197968,s1,blue,pink,s2,s1,sea1,-1,-3,-1,-1,286,0,2,volgorde5
,,,,289,['j'],1.382120512,s4,white,yellow,s3,s4,sea2,-2,-2,-2,-2,284,0,2,volgorde5
,,,,290,['f'],0.606613358,s1,pink,blue,s1,s2,sea1,-1,-1,-1,-1,283,0,2,volgorde5
,,,,291,['f'],1.054178516,s2,blue,pink,s2,s1,sea2,0,0,0,0,283,0,2,volgorde5
,,,,292,None,2.000066071,s2,yellow,white,s4,s3,sea2,-1,-1,-1,None,283,0,2,volgorde5
,,,,293,['j'],0.800192184,s4,white,yellow,s3,s4,sea2,-2,-2,-2,-2,281,0,2,volgorde5
,,,,294,['f'],1.135758366,s1,pink,blue,s1,s2,sea1,-1,-3,-1,-1,280,0,2,volgorde5
,,,,295,['j'],0.010274097,s1,blue,pink,s2,s1,sea1,-2,-2,-2,-2,278,0,2,volgorde5
,,,,296,['j'],0.289607456,s3,yellow,white,s4,s3,sea1,-3,-3,-3,-3,275,0,2,volgorde5
,,,,297,['f'],0.462130686,s3,white,yellow,s3,s4,sea1,-4,-2,-2,-4,271,0,2,volgorde5
,,,,298,['j'],1.451140709,s4,white,yellow,s3,s4,sea2,-5,-3,-3,-3,268,0,2,volgorde5
,,,,299,['j'],1.800251199,s2,pink,blue,s1,s2,sea2,-4,-2,-2,-2,266,0,2,volgorde5
,,,,300,['j'],0.728022693,s4,white,yellow,s3,s4,sea2,-5,-1,-1,-1,265,0,2,volgorde5
,,,,301,['j'],0.010602208,s1,blue,pink,s2,s1,sea1,-4,0,0,-4,261,0,2,volgorde5
,,,,302,['j'],1.185922246,s4,white,yellow,s3,s4,sea2,-3,-1,-1,-1,260,0,2,volgorde5
,,,,303,['j'],0.642131526,s2,pink,blue,s1,s2,sea2,-4,-2,-2,-2,258,0,2,volgorde5
,,,,304,['j'],0.943708483,s2,pink,blue,s1,s2,sea2,-3,-1,-1,-1,257,0,2,volgorde5
,,,,305,['j'],0.42553517,s3,yellow,white,s4,s3,sea1,-2,0,0,-2,255,0,2,volgorde5
,,,,306,['f'],0.408189192,s1,pink,blue,s1,s2,sea1,-3,-1,-1,-3,252,0,2,volgorde5
,,,,307,['j'],0.543444646,s4,white,yellow,s3,s4,sea2,-4,-2,-2,-2,250,0,2,volgorde5
,,,,308,['f'],0.425729856,s3,white,yellow,s3,s4,sea1,-5,-3,-3,-5,245,0,2,volgorde5
,,,,309,['j'],0.359649193,s4,white,yellow,s3,s4,sea2,-4,-4,-4,-4,241,0,2,volgorde5
,,,,310,['j'],0.528589816,s4,white,yellow,s3,s4,sea2,-3,-3,-3,-3,238,0,2,volgorde5
,,,,311,['f'],0.523516433,s2,blue,pink,s2,s1,sea2,-2,-4,-2,-4,234,0,2,volgorde5
,,,,312,['j'],0.470125,s1,blue,pink,s2,s1,sea1,-3,-5,-3,-3,231,0,2,volgorde5
,,,,313,['f'],1.13103715,s1,pink,blue,s1,s2,sea1,-2,-4,-2,-2,229,0,2,volgorde5
,,,,314,None,2.000075373,s1,white,yellow,s3,s4,sea1,-3,-3,-3,None,229,0,2,volgorde5
,,,,315,['j'],0.458060562,s1,blue,pink,s2,s1,sea1,-4,-2,-2,-4,225,0,2,volgorde5
,,,,316,['f'],1.071319865,s2,blue,pink,s2,s1,sea2,-3,-3,-3,-3,222,0,2,volgorde5
,,,,317,['j'],0.668272372,s4,white,yellow,s3,s4,sea2,-4,-2,-2,-2,220,0,2,volgorde5
,,,,318,['f'],1.51341393,s3,white,yellow,s3,s4,sea1,-5,-1,-1,-5,215,0,2,volgorde5
,,,,319,['f'],0.948872954,s3,white,yellow,s3,s4,sea1,-4,0,0,-4,211,0,2,volgorde5
,,,,320,['j'],0.566714274,s3,yellow,white,s4,s3,sea1,-5,-1,-1,-5,206,0,2,volgorde5
,,,,321,['j'],1.5196519,s1,blue,pink,s2,s1,sea1,-4,-2,-2,-4,202,0,2,volgorde5
,,,,322,['f'],1.978463302,s2,blue,pink,s2,s1,sea2,-5,-1,-1,-1,201,0,2,volgorde5
,,,,323,['f'],0.474897533,s3,white,yellow,s3,s4,sea1,-4,-2,-2,-4,197,0,2,volgorde5
,,,,324,['j'],0.511449109,s2,pink,blue,s1,s2,sea2,-5,-1,-1,-1,196,0,2,volgorde5
,,,,325,['f'],0.530417683,s2,blue,pink,s2,s1,sea2,-4,0,0,0,196,0,2,volgorde5
,,,,326,['f'],0.613344298,s2,blue,pink,s2,s1,sea2,-5,-1,-1,-1,195,0,2,volgorde5
,,,,327,['f'],0.012283179,s1,pink,blue,s1,s2,sea1,-4,0,0,-4,191,0,2,volgorde5
,,,,328,['f'],0.579261418,s2,blue,pink,s2,s1,sea2,-5,-1,-1,-1,190,0,2,volgorde5
,,,,329,None,2.000046507,s2,blue,pink,s2,s1,sea2,-4,-2,-2,None,190,0,2,volgorde5
,,,,330,['f'],0.616652998,s2,blue,pink,s2,s1,sea2,-3,-1,-1,-1,189,0,2,volgorde5
,,,,331,['f'],0.991867449,s4,yellow,white,s4,s3,sea2,-4,-2,-2,-2,187,0,2,volgorde5
,,,,332,['f'],0.775768232,s4,yellow,white,s4,s3,sea2,-3,-1,-1,-1,186,0,2,volgorde5
,,,,333,['f'],0.472657201,s1,pink,blue,s1,s2,sea1,-4,0,0,-4,182,0,2,volgorde5
,,,,334,['j'],1.173263807,s4,white,yellow,s3,s4,sea2,-5,-1,-1,-1,181,0,2,volgorde5
,,,,335,['f'],1.533744024,s4,yellow,white,s4,s3,sea2,-4,0,0,0,181,0,2,volgorde5
,,,,336,['j'],0.99989544,s4,white,yellow,s3,s4,sea2,-3,-1,-1,-1,180,0,2,volgorde5
,,,,337,['j'],0.943439707,s2,pink,blue,s1,s2,sea2,-2,-2,-2,-2,178,0,2,volgorde5
,,,,338,None,2.000073769,s2,pink,blue,s1,s2,sea2,-1,-1,-1,None,178,0,2,volgorde5
,,,,339,['j'],0.293784706,s1,blue,pink,s2,s1,sea1,-2,0,0,-2,176,0,2,volgorde5
,,,,340,['f'],1.593363485,s3,white,yellow,s3,s4,sea1,-1,-1,-1,-1,175,0,2,volgorde5
,,,,341,['f'],0.50517265,s3,white,yellow,s3,s4,sea1,-2,-2,-2,-2,173,0,2,volgorde5
,,,,342,['j'],1.100444186,s1,blue,pink,s2,s1,sea1,-3,-3,-3,-3,170,0,2,volgorde5
,,,,343,['f'],0.567622275,s2,blue,pink,s2,s1,sea2,-4,-4,-4,-4,166,0,2,volgorde5
,,,,344,['j'],0.56854118,s2,pink,blue,s1,s2,sea2,-5,-3,-3,-3,163,0,2,volgorde5
,,,,345,['f'],0.441467349,s2,blue,pink,s2,s1,sea2,-4,-2,-2,-2,161,0,2,volgorde5
,,,,346,['f'],0.447391961,s2,blue,pink,s2,s1,sea2,-5,-3,-3,-3,158,0,2,volgorde5
,,,,347,['f'],1.949330643,s4,yellow,white,s4,s3,sea2,-4,-2,-2,-2,156,0,2,volgorde5
,,,,348,['f'],0.646438353,s4,yellow,white,s4,s3,sea2,-5,-3,-3,-3,153,0,2,volgorde5
,,,,349,['f'],0.420343436,s4,yellow,white,s4,s3,sea2,-4,-4,-4,-4,149,0,2,volgorde5
,,,,350,['f'],0.339623156,s4,yellow,white,s4,s3,sea2,-5,-3,-3,-3,146,0,2,volgorde5
,,,,351,['j'],1.038276166,s1,blue,pink,s2,s1,sea1,-4,-2,-2,-4,142,0,2,volgorde5
,,,,352,['f'],0.788117162,s1,pink,blue,s1,s2,sea1,-3,-1,-1,-3,139,0,2,volgorde5
,,,,353,['j'],0.364329996,s1,blue,pink,s2,s1,sea1,-2,-2,-2,-2,137,0,2,volgorde5
,,,,354,['f'],0.781929867,s4,yellow,white,s4,s3,sea2,-1,-3,-1,-3,134,0,2,volgorde5
,,,,355,['f'],0.406499882,s4,yellow,white,s4,s3,sea2,-2,-4,-2,-4,130,0,2,volgorde5
,,,,356,['f'],0.541775863,s4,yellow,white,s4,s3,sea2,-3,-5,-3,-5,125,0,2,volgorde5
,,,,357,['j'],1.095374331,s1,blue,pink,s2,s1,sea1,-2,-4,-2,-2,123,0,2,volgorde5
,,,,358,['j'],0.442880185,s1,blue,pink,s2,s1,sea1,-1,-3,-1,-1,122,0,2,volgorde5
,,,,359,['f'],0.752798812,s3,white,yellow,s3,s4,sea1,0,-4,0,0,122,0,2,volgorde5
,,,,360,['f'],0.762383329,s1,pink,blue,s1,s2,sea1,-1,-5,-1,-1,121,0,2,volgorde5
,,,,361,['j'],0.371950654,s1,blue,pink,s2,s1,sea1,0,-4,0,0,121,0,2,volgorde5
,,,,362,['f'],0.45289128,s3,white,yellow,s3,s4,sea1,-1,-5,-1,-1,120,0,2,volgorde5
,,,,363,['f'],0.482182061,s3,white,yellow,s3,s4,sea1,0,-4,0,0,120,0,2,volgorde5
,,,,364,['f'],0.694789118,s1,pink,blue,s1,s2,sea1,-1,-5,-1,-1,119,0,2,volgorde5
,,,,365,['j'],0.370694657,s1,blue,pink,s2,s1,sea1,0,-4,0,0,119,0,2,volgorde5
,,,,366,['j'],0.387983544,s1,blue,pink,s2,s1,sea1,-1,-5,-1,-1,118,0,2,volgorde5
,,,,367,['j'],0.436236165,s3,yellow,white,s4,s3,sea1,-2,-4,-2,-2,116,0,2,volgorde5
,,,,368,['j'],0.40218183,s3,yellow,white,s4,s3,sea1,-1,-5,-1,-1,115,0,2,volgorde5
,,,,369,['f'],0.56947131,s1,pink,blue,s1,s2,sea1,-2,-4,-2,-2,113,0,2,volgorde5
,,,,370,['j'],0.434425296,s1,blue,pink,s2,s1,sea1,-1,-5,-1,-1,112,0,2,volgorde5
,,,,371,['j'],0.328326877,s3,yellow,white,s4,s3,sea1,0,-4,0,0,112,0,2,volgorde5
,,,,372,['j'],0.386642231,s3,yellow,white,s4,s3,sea1,-1,-3,-1,-1,111,0,2,volgorde5
,,,,373,['f'],0.44323139,s1,pink,blue,s1,s2,sea1,0,-4,0,0,111,0,2,volgorde5
,,,,374,['j'],0.361146062,s1,blue,pink,s2,s1,sea1,-1,-3,-1,-1,110,0,2,volgorde5
,,,,375,['j'],0.402104854,s1,blue,pink,s2,s1,sea1,-2,-4,-2,-2,108,0,2,volgorde5
,,,,376,['j'],0.779753682,s1,blue,pink,s2,s1,sea1,5,1,5,5,5,1,1,volgorde5
,,,,377,['j'],1.084336886,s3,yellow,white,s4,s3,sea1,4,0,4,4,9,1,1,volgorde5
,,,,378,['j'],0.4008851,s1,blue,pink,s2,s1,sea1,3,1,3,3,12,1,1,volgorde5
,,,,379,['f'],0.728462099,s1,pink,blue,s1,s2,sea1,4,2,4,4,16,1,1,volgorde5
,,,,380,['j'],0.475400766,s1,blue,pink,s2,s1,sea1,3,1,3,3,19,1,1,volgorde5
,,,,381,['f'],0.759992251,s3,white,yellow,s3,s4,sea1,2,0,2,2,21,1,1,volgorde5
,,,,382,['j'],0.753205183,s3,yellow,white,s4,s3,sea1,3,1,3,3,24,1,1,volgorde5
,,,,383,['j'],0.946760274,s4,white,yellow,s3,s4,sea2,4,2,4,2,26,1,1,volgorde5
,,,,384,['f'],0.764672733,s2,blue,pink,s2,s1,sea2,5,1,5,1,27,1,1,volgorde5
,,,,385,['j'],0.406246823,s3,yellow,white,s4,s3,sea1,4,0,4,4,31,1,1,volgorde5
,,,,386,['j'],0.373846838,s3,yellow,white,s4,s3,sea1,5,1,5,5,36,1,1,volgorde5
,,,,387,['j'],0.431129426,s3,yellow,white,s4,s3,sea1,4,0,4,4,40,1,1,volgorde5
,,,,388,['f'],0.59704584,s3,white,yellow,s3,s4,sea1,5,1,5,5,45,1,1,volgorde5
,,,,389,['f'],0.541322986,s1,pink,blue,s1,s2,sea1,4,0,4,4,49,1,1,volgorde5
,,,,390,['f'],0.495587812,s3,white,yellow,s3,s4,sea1,5,1,5,5,54,1,1,volgorde5
,,,,391,['j'],0.403511917,s1,blue,pink,s2,s1,sea1,4,2,4,4,58,1,1,volgorde5
,,,,392,['j'],0.419438644,s3,yellow,white,s4,s3,sea1,5,3,5,5,63,1,1,volgorde5
,,,,393,['j'],0.490373627,s3,yellow,white,s4,s3,sea1,4,4,4,4,67,1,1,volgorde5
,,,,394,['f'],0.598642137,s3,white,yellow,s3,s4,sea1,5,5,5,5,72,1,1,volgorde5
,,,,395,['j'],0.366233878,s3,yellow,white,s4,s3,sea1,4,4,4,4,76,1,1,volgorde5
,,,,396,['j'],0.375174359,s3,yellow,white,s4,s3,sea1,5,3,5,5,81,1,1,volgorde5
,,,,397,['j'],0.439794717,s3,yellow,white,s4,s3,sea1,4,2,4,4,85,1,1,volgorde5
,,,,398,['j'],0.510408324,s1,blue,pink,s2,s1,sea1,5,1,5,5,90,1,1,volgorde5
,,,,399,['j'],0.393662794,s3,yellow,white,s4,s3,sea1,4,0,4,4,94,1,1,volgorde5
,,,,400,['f'],0.40160547,s1,pink,blue,s1,s2,sea1,5,1,5,5,99,1,1,volgorde5
,,,,401,['j'],0.376895422,s1,blue,pink,s2,s1,sea1,4,0,4,4,103,1,1,volgorde5
,,,,402,['j'],0.417154691,s3,yellow,white,s4,s3,sea1,3,1,3,3,106,1,1,volgorde5
,,,,403,['j'],0.575760598,s3,yellow,white,s4,s3,sea1,4,0,4,4,110,1,1,volgorde5
,,,,404,['f'],0.504025061,s3,white,yellow,s3,s4,sea1,5,1,5,5,115,1,1,volgorde5
,,,,405,['j'],0.69163373,s1,blue,pink,s2,s1,sea1,4,0,4,4,119,1,1,volgorde5
,,,,406,['f'],0.359559067,s3,white,yellow,s3,s4,sea1,5,1,5,5,124,1,1,volgorde5
,,,,407,['j'],0.408477212,s3,yellow,white,s4,s3,sea1,4,2,4,4,128,1,1,volgorde5
,,,,408,['j'],0.327766875,s3,yellow,white,s4,s3,sea1,5,3,5,5,133,1,1,volgorde5
,,,,409,['f'],0.362043799,s1,pink,blue,s1,s2,sea1,4,2,4,4,137,1,1,volgorde5
,,,,410,['f'],0.714990918,s1,pink,blue,s1,s2,sea1,5,3,5,5,142,1,1,volgorde5
,,,,411,['f'],0.398566187,s3,white,yellow,s3,s4,sea1,4,4,4,4,146,1,1,volgorde5
,,,,412,['j'],0.334171627,s1,blue,pink,s2,s1,sea1,3,3,3,3,149,1,1,volgorde5
,,,,413,['f'],0.408452836,s1,pink,blue,s1,s2,sea1,2,2,2,2,151,1,1,volgorde5
,,,,414,['j'],0.343740749,s3,yellow,white,s4,s3,sea1,3,3,3,3,154,1,1,volgorde5
,,,,415,['j'],0.681346804,s3,yellow,white,s4,s3,sea1,2,4,4,2,156,1,1,volgorde5
,,,,416,['j'],0.60591993,s1,blue,pink,s2,s1,sea1,3,3,3,3,159,1,1,volgorde5
,,,,417,['j'],0.365162944,s3,yellow,white,s4,s3,sea1,4,2,4,4,163,1,1,volgorde5
,,,,418,['f'],0.44678898,s3,white,yellow,s3,s4,sea1,3,1,3,3,166,1,1,volgorde5
,,,,419,['j'],0.380709279,s3,yellow,white,s4,s3,sea1,4,0,4,4,170,1,1,volgorde5
,,,,420,['f'],0.516989802,s3,white,yellow,s3,s4,sea1,5,1,5,5,175,1,1,volgorde5
,,,,421,['j'],0.575928984,s1,blue,pink,s2,s1,sea1,4,2,4,4,179,1,1,volgorde5
,,,,422,['j'],0.712185131,s3,yellow,white,s4,s3,sea1,5,1,5,5,184,1,1,volgorde5
,,,,423,['j'],0.603409218,s3,yellow,white,s4,s3,sea1,4,2,4,4,188,1,1,volgorde5
,,,,424,['j'],0.499354842,s1,blue,pink,s2,s1,sea1,3,3,3,3,191,1,1,volgorde5
,,,,425,['f'],0.454619078,s3,white,yellow,s3,s4,sea1,2,4,4,2,193,1,1,volgorde5
,,,,426,['j'],0.379882746,s1,blue,pink,s2,s1,sea1,1,5,5,1,194,1,1,volgorde5
,,,,427,['j'],0.492477968,s1,blue,pink,s2,s1,sea1,0,4,4,0,194,1,1,volgorde5
,,,,428,['j'],0.481100223,s1,blue,pink,s2,s1,sea1,1,3,3,1,195,1,1,volgorde5
,,,,429,['f'],0.581690984,s2,blue,pink,s2,s1,sea2,2,4,4,4,199,1,1,volgorde5
,,,,430,['f'],0.822283112,s2,blue,pink,s2,s1,sea2,3,5,5,5,204,1,1,volgorde5
,,,,431,['f'],0.533162211,s2,blue,pink,s2,s1,sea2,2,4,4,4,208,1,1,volgorde5
,,,,432,None,2.000063185,s2,pink,blue,s1,s2,sea2,1,5,5,None,208,1,1,volgorde5
,,,,433,['j'],0.339901554,s2,pink,blue,s1,s2,sea2,0,4,4,4,212,1,1,volgorde5
,,,,434,['f'],0.518189029,s2,blue,pink,s2,s1,sea2,1,3,3,3,215,1,1,volgorde5
,,,,435,['f'],1.265107169,s3,white,yellow,s3,s4,sea1,2,2,2,2,217,1,1,volgorde5
,,,,436,['j'],1.022275992,s1,blue,pink,s2,s1,sea1,1,3,3,1,218,1,1,volgorde5
,,,,437,['j'],0.901141527,s4,white,yellow,s3,s4,sea2,2,4,4,4,222,1,1,volgorde5
,,,,438,['f'],0.649013853,s2,blue,pink,s2,s1,sea2,3,5,5,5,227,1,1,volgorde5
,,,,439,['f'],0.734580756,s2,blue,pink,s2,s1,sea2,4,4,4,4,231,1,1,volgorde5
,,,,440,['j'],0.856944597,s2,pink,blue,s1,s2,sea2,5,5,5,5,236,1,1,volgorde5
,,,,441,['f'],1.126381044,s4,yellow,white,s4,s3,sea2,4,4,4,4,240,1,1,volgorde5
,,,,442,['j'],0.352900934,s2,pink,blue,s1,s2,sea2,3,3,3,3,243,1,1,volgorde5
,,,,443,['j'],0.482535511,s4,white,yellow,s3,s4,sea2,2,4,4,4,247,1,1,volgorde5
,,,,444,['j'],0.518791048,s2,pink,blue,s1,s2,sea2,3,3,3,3,250,1,1,volgorde5
,,,,445,['f'],0.409389703,s4,yellow,white,s4,s3,sea2,2,4,4,4,254,1,1,volgorde5
,,,,446,['f'],0.488706127,s2,blue,pink,s2,s1,sea2,1,5,5,5,259,1,1,volgorde5
,,,,447,['j'],0.468578417,s4,white,yellow,s3,s4,sea2,2,4,4,4,263,1,1,volgorde5
,,,,448,['f'],0.673524724,s4,yellow,white,s4,s3,sea2,1,5,5,5,268,1,1,volgorde5
,,,,449,['f'],0.43842999,s2,blue,pink,s2,s1,sea2,0,4,4,4,272,1,1,volgorde5
,,,,450,['f'],0.516378481,s2,blue,pink,s2,s1,sea2,1,3,3,3,275,1,1,volgorde5
,,,,451,['j'],0.543314428,s4,white,yellow,s3,s4,sea2,2,4,4,4,279,1,1,volgorde5
,,,,452,['j'],0.353544969,s2,pink,blue,s1,s2,sea2,1,3,3,3,282,1,1,volgorde5
,,,,453,['f'],0.467166863,s4,yellow,white,s4,s3,sea2,0,2,2,2,284,1,1,volgorde5
,,,,454,['j'],0.463785998,s1,blue,pink,s2,s1,sea1,1,3,3,1,285,1,1,volgorde5
,,,,455,['j'],1.013039472,s4,white,yellow,s3,s4,sea2,2,4,4,4,289,1,1,volgorde5
,,,,456,['j'],0.587947237,s2,pink,blue,s1,s2,sea2,1,5,5,5,294,1,1,volgorde5
,,,,457,['j'],0.787161052,s2,pink,blue,s1,s2,sea2,0,4,4,4,298,1,1,volgorde5
,,,,458,['j'],0.771030979,s2,pink,blue,s1,s2,sea2,1,5,5,5,303,1,1,volgorde5
,,,,459,['j'],0.363945756,s4,white,yellow,s3,s4,sea2,2,4,4,4,307,1,1,volgorde5
,,,,460,['f'],0.533220584,s2,blue,pink,s2,s1,sea2,1,3,3,3,310,1,1,volgorde5
,,,,461,['f'],0.495142953,s2,blue,pink,s2,s1,sea2,2,4,4,4,314,1,1,volgorde5
,,,,462,['f'],0.875396148,s4,yellow,white,s4,s3,sea2,3,5,5,5,319,1,1,volgorde5
,,,,463,['f'],0.543634842,s2,blue,pink,s2,s1,sea2,4,4,4,4,323,1,1,volgorde5
,,,,464,['f'],0.329241613,s2,blue,pink,s2,s1,sea2,3,5,5,5,328,1,1,volgorde5
,,,,465,['f'],0.50749926,s4,yellow,white,s4,s3,sea2,4,4,4,4,332,1,1,volgorde5
,,,,466,['j'],0.559092333,s2,pink,blue,s1,s2,sea2,5,3,5,3,335,1,1,volgorde5
,,,,467,['j'],0.888707923,s2,pink,blue,s1,s2,sea2,4,2,4,2,337,1,1,volgorde5
,,,,468,['j'],0.61290842,s2,pink,blue,s1,s2,sea2,5,3,5,3,340,1,1,volgorde5
,,,,469,['j'],0.316175199,s2,pink,blue,s1,s2,sea2,4,4,4,4,344,1,1,volgorde5
,,,,470,['j'],0.495127879,s2,pink,blue,s1,s2,sea2,3,5,5,5,349,1,1,volgorde5
,,,,471,['j'],1.067022019,s4,white,yellow,s3,s4,sea2,4,4,4,4,353,1,1,volgorde5
,,,,472,['f'],0.455904583,s4,yellow,white,s4,s3,sea2,3,3,3,3,356,1,1,volgorde5
,,,,473,['f'],0.741163196,s2,blue,pink,s2,s1,sea2,4,4,4,4,360,1,1,volgorde5
,,,,474,['j'],0.359401907,s4,white,yellow,s3,s4,sea2,5,3,5,3,363,1,1,volgorde5
,,,,475,['f'],0.544355212,s2,blue,pink,s2,s1,sea2,4,4,4,4,367,1,1,volgorde5
,,,,476,['f'],0.473948158,s2,blue,pink,s2,s1,sea2,3,5,5,5,372,1,1,volgorde5
,,,,477,['f'],0.52654449,s4,yellow,white,s4,s3,sea2,2,4,4,4,376,1,1,volgorde5
,,,,478,['f'],0.560814358,s2,blue,pink,s2,s1,sea2,1,5,5,5,381,1,1,volgorde5
,,,,479,['j'],0.697709729,s4,white,yellow,s3,s4,sea2,2,4,4,4,385,1,1,volgorde5
,,,,480,['j'],0.693940775,s4,white,yellow,s3,s4,sea2,3,5,5,5,390,1,1,volgorde5
,,,,481,['j'],0.577525923,s4,white,yellow,s3,s4,sea2,4,4,4,4,394,1,1,volgorde5
,,,,482,['f'],0.721793382,s4,yellow,white,s4,s3,sea2,5,5,5,5,399,1,1,volgorde5
,,,,483,['j'],0.508701374,s2,pink,blue,s1,s2,sea2,4,4,4,4,403,1,1,volgorde5
,,,,484,['f'],0.919948131,s4,yellow,white,s4,s3,sea2,5,5,5,5,408,1,1,volgorde5
,,,,485,['j'],0.698504831,s4,white,yellow,s3,s4,sea2,4,4,4,4,412,1,1,volgorde5
,,,,486,['f'],0.502406633,s2,blue,pink,s2,s1,sea2,5,5,5,5,417,1,1,volgorde5
,,,,487,['f'],0.962059643,s4,yellow,white,s4,s3,sea2,4,4,4,4,421,1,1,volgorde5
,,,,488,['j'],0.347209816,s2,pink,blue,s1,s2,sea2,3,3,3,3,424,1,1,volgorde5
,,,,489,['j'],0.884801374,s2,pink,blue,s1,s2,sea2,2,4,4,4,428,1,1,volgorde5
,,,,490,['f'],0.504694755,s2,blue,pink,s2,s1,sea2,1,3,3,3,431,1,1,volgorde5
,,,,491,['f'],0.868313682,s1,pink,blue,s1,s2,sea1,2,4,4,2,433,1,1,volgorde5
,,,,492,['f'],1.1851605,s4,yellow,white,s4,s3,sea2,3,5,5,5,438,1,1,volgorde5
,,,,493,['j'],0.377046809,s2,pink,blue,s1,s2,sea2,4,4,4,4,442,1,1,volgorde5
,,,,494,['j'],0.841617004,s4,white,yellow,s3,s4,sea2,3,3,3,3,445,1,1,volgorde5
,,,,495,['j'],0.487866443,s2,pink,blue,s1,s2,sea2,2,4,4,4,449,1,1,volgorde5
,,,,496,['j'],0.659792465,s4,white,yellow,s3,s4,sea2,1,3,3,3,452,1,1,volgorde5
,,,,497,['f'],0.401060862,s2,blue,pink,s2,s1,sea2,0,2,2,2,454,1,1,volgorde5
,,,,498,['f'],1.12095357,s4,yellow,white,s4,s3,sea2,1,3,3,3,457,1,1,volgorde5
,,,,499,['j'],0.563838887,s4,white,yellow,s3,s4,sea2,2,4,4,4,461,1,1,volgorde5
,,,,500,['j'],0.676741053,s4,white,yellow,s3,s4,sea2,3,3,3,3,464,1,1,volgorde5
